Bechdel Test Revisited by Movie Gender
…
# Now comes the redundant filtering

movies_filtered[str_detect(movies_filtered$original_title, "Peregrine"), 9] <- "Miss Peregrine’s Home for Peculiar Children"
movies_filtered[str_detect(movies_filtered$original_title, "Breathe"), 9] <- "Don’t Breathe"
movies_filtered[str_detect(movies_filtered$original_title, "Pete's Dragon"), 9] <- "Pete’s Dragon"
movies_filtered[str_detect(movies_filtered$original_title, "Conjuring 2"), 9] <- "The Conjuring 2: The Enfield Poltergeist"
movies_filtered[str_detect(movies_filtered$original_title, "Madea"), 9] <- "Tyler Perry’s Boo! A Madea Halloween"
movies_filtered[str_detect(movies_filtered$original_title, "Allegiant"), 9] <- "The Divergent Series: Allegiant"

# Check if it works

movies_filtered %>% 
  filter(original_title %in% top_50_movies_fte) 

## # A tibble: 50 x 24
##    adult belongs_to_coll… budget genres homepage     id imdb_id
##    <chr> <chr>             <int> <chr>  <chr>     <int> <chr>  
##  1 False {'id': 448150, … 5.80e7 [{'id… http://… 293660 tt1431…
##  2 False {'id': 131295, … 2.50e8 [{'id… http://… 271110 tt3498…
##  3 False <NA>             1.65e8 [{'id… http://… 284052 tt1211…
##  4 False {'id': 748, 'na… 1.78e8 [{'id… http://… 246655 tt3385…
##  5 False {'id': 283579, … 1.10e8 [{'id… http://… 262504 tt3410…
##  6 False {'id': 435259, … 1.80e8 [{'id… http://… 259316 tt3183…
##  7 False {'id': 427084, … 7.50e7 [{'id… http://… 328111 tt2709…
##  8 False <NA>             1.75e8 [{'id… http://… 297761 tt1386…
##  9 False {'id': 304378, … 1.65e8 [{'id… http://…  47933 tt1628…
## 10 False {'id': 115575, … 1.85e8 [{'id… http://… 188927 tt2660…
## # ... with 40 more rows, and 17 more variables: original_language <chr>,
## #   original_title <chr>, overview <chr>, popularity <dbl>,
## #   poster_path <chr>, production_companies <chr>,
## #   production_countries <chr>, release_date <date>, revenue <int>,
## #   runtime <dbl>, spoken_languages <chr>, status <chr>, tagline <chr>,
## #   title <chr>, video <chr>, vote_average <dbl>, vote_count <int>
…
